%YAML 1.1
%TAG !u! tag:unity3d.com,2011:
--- !u!21 &2100000
Material:
  serializedVersion: 6
  m_ObjectHideFlags: 0
  m_PrefabParentObject: {fileID: 0}
  m_PrefabInternal: {fileID: 0}
  m_Name: CrazyFractal
  m_Shader: {fileID: 4800000, guid: 100c9f6ec37b01644b7a5f7feac179d6, type: 3}
  m_ShaderKeywords: 
  m_LightmapFlags: 5
  m_EnableInstancingVariants: 0
  m_CustomRenderQueue: -1
  stringTagMap: {}
  disabledShaderPasses: []
  m_SavedProperties:
    serializedVersion: 3
    m_TexEnvs: []
    m_Floats:
    - _Brightness: 2.4
    - _CamScroll: 333
    - _Darkmatter: 349
    - _Distfading: 173.3
    - _Formuparam: 998
    - _Iterations: 15
    - _Saturation: 58.29
    - _StepSize: 498.1
    - _Tile: 1046
    - _Volsteps: 8
    m_Colors:
    - _Center: {r: 1, g: 0.3, b: 0.5, a: 0}
    - _Color: {r: 0.58823526, g: 0.069204144, b: 0.069204144, a: 1}
    - _Rotation: {r: 0, g: 0, b: 0, a: 0.01}
    - _Scroll: {r: 1.3, g: 1, b: 0.6, a: 0.01}
