%YAML 1.1
%TAG !u! tag:unity3d.com,2011:
--- !u!21 &2100000
Material:
  serializedVersion: 6
  m_ObjectHideFlags: 0
  m_PrefabParentObject: {fileID: 0}
  m_PrefabInternal: {fileID: 0}
  m_Name: Green2_Hueshift
  m_Shader: {fileID: 4800000, guid: 27dad6e6a6c1988439ea192ad22a1a2c, type: 3}
  m_ShaderKeywords: 
  m_LightmapFlags: 5
  m_EnableInstancingVariants: 0
  m_CustomRenderQueue: 1000
  stringTagMap: {}
  disabledShaderPasses: []
  m_SavedProperties:
    serializedVersion: 3
    m_TexEnvs:
    - _BumpMap:
        m_Texture: {fileID: 0}
        m_Scale: {x: 1, y: 1}
        m_Offset: {x: 0, y: 0}
    - _DetailAlbedoMap:
        m_Texture: {fileID: 0}
        m_Scale: {x: 1, y: 1}
        m_Offset: {x: 0, y: 0}
    - _DetailMask:
        m_Texture: {fileID: 0}
        m_Scale: {x: 1, y: 1}
        m_Offset: {x: 0, y: 0}
    - _DetailNormalMap:
        m_Texture: {fileID: 0}
        m_Scale: {x: 1, y: 1}
        m_Offset: {x: 0, y: 0}
    - _EmissionMap:
        m_Texture: {fileID: 0}
        m_Scale: {x: 1, y: 1}
        m_Offset: {x: 0, y: 0}
    - _MainTex:
        m_Texture: {fileID: 0}
        m_Scale: {x: 1, y: 1}
        m_Offset: {x: 0, y: 0}
    - _MetallicGlossMap:
        m_Texture: {fileID: 0}
        m_Scale: {x: 1, y: 1}
        m_Offset: {x: 0, y: 0}
    - _OcclusionMap:
        m_Texture: {fileID: 0}
        m_Scale: {x: 1, y: 1}
        m_Offset: {x: 0, y: 0}
    - _ParallaxMap:
        m_Texture: {fileID: 0}
        m_Scale: {x: 1, y: 1}
        m_Offset: {x: 0, y: 0}
    m_Floats:
    - _Brightness: 23.14
    - _BumpScale: 1
    - _CamScroll: 55
    - _Cutoff: 0.5
    - _Darkmatter: 0
    - _DetailNormalMapScale: 1
    - _Distfading: 18.7
    - _DstBlend: 0
    - _Formuparam: 603.81
    - _Glossiness: 0.5
    - _HueShift: 0.72
    - _Iterations: 15
    - _Metallic: 0
    - _Mode: 0
    - _OcclusionStrength: 1
    - _Parallax: 0.02
    - _PostSat: 0.11
    - _Saturation: 27.58
    - _SrcBlend: 1
    - _StepSize: 583
    - _Tile: 1253
    - _UVSec: 0
    - _Volsteps: 8
    - _ZWrite: 1
    m_Colors:
    - _Center: {r: 1, g: 0.63, b: 0.8, a: 0}
    - _Color: {r: 0.15002318, g: 0.47794116, b: 0.045685537, a: 1}
    - _EmissionColor: {r: 0, g: 0, b: 0, a: 1}
    - _Rotation: {r: 0, g: 0, b: 0, a: 0.01}
    - _Scroll: {r: 0.1, g: 0.1, b: -0.3, a: 0}
